<svg xmlns="http://www.w3.org/2000/svg" width="500" height="500" viewBox="0 0 500 500">
  <defs>
    <style>
      .cls-1, .cls-3 {
        fill: #ff3e62;
      }

      .cls-2 {
        fill: #fff;
      }

      .cls-2, .cls-3 {
        fill-rule: evenodd;
      }
    </style>
  </defs>
  <circle class="cls-1" cx="248.5" cy="249.5" r="248.5"/>
  <path id="Rounded_Rectangle_1" data-name="Rounded Rectangle 1" class="cls-2" d="M249.65,99a10.806,10.806,0,0,1,10.807,10.807v33.176a10.807,10.807,0,1,1-21.613,0V109.807A10.806,10.806,0,0,1,249.65,99Z"/>
  <path id="Rounded_Rectangle_1_copy" data-name="Rounded Rectangle 1 copy" class="cls-2" d="M142.838,143.368a10.813,10.813,0,0,1,15.275.084l23.4,23.616a10.792,10.792,0,1,1-15.358,15.167l-23.4-23.617A10.771,10.771,0,0,1,142.838,143.368Z"/>
  <path id="Rounded_Rectangle_1_copy_2" data-name="Rounded Rectangle 1 copy 2" class="cls-2" d="M99,249.678a10.794,10.794,0,0,1,10.86-10.725l33.27,0.183a10.784,10.784,0,1,1-.118,21.567l-33.271-.182A10.793,10.793,0,0,1,99,249.678Z"/>
  <path id="Rounded_Rectangle_1_copy_3" data-name="Rounded Rectangle 1 copy 3" class="cls-2" d="M142.625,356.464a10.772,10.772,0,0,1,.084-15.251l23.655-23.358a10.792,10.792,0,1,1,15.191,15.334L157.9,356.547A10.813,10.813,0,0,1,142.625,356.464Z"/>
  <path id="Rounded_Rectangle_1_copy_4" data-name="Rounded Rectangle 1 copy 4" class="cls-2" d="M249.411,401a10.768,10.768,0,0,1-10.7-10.854L239,356.959a10.792,10.792,0,0,1,21.584.159L260.3,390.307A10.8,10.8,0,0,1,249.411,401Z"/>
  <path id="Rounded_Rectangle_1_copy_5" data-name="Rounded Rectangle 1 copy 5" class="cls-2" d="M356.54,356.559a10.79,10.79,0,0,1-15.254,0l-23.5-23.475a10.783,10.783,0,1,1,15.248-15.252l23.5,23.474A10.779,10.779,0,0,1,356.54,356.559Z"/>
  <path id="Rounded_Rectangle_1_copy_6" data-name="Rounded Rectangle 1 copy 6" class="cls-2" d="M401,249.85a10.769,10.769,0,0,1-10.782,10.772l-33.244-.008a10.775,10.775,0,1,1-.021-21.55l33.244,0.008A10.8,10.8,0,0,1,401,249.85Z"/>
  <path id="Rounded_Rectangle_1_copy_7" data-name="Rounded Rectangle 1 copy 7" class="cls-2" d="M360.708,144.65a10.76,10.76,0,0,1,0,15.237l-23.5,23.476a10.785,10.785,0,0,1-15.272-15.232l23.5-23.476A10.81,10.81,0,0,1,360.708,144.65ZM248.34,173.626a73.782,73.782,0,1,1-73.811,73.782A73.8,73.8,0,0,1,248.34,173.626Z"/>
  <path class="cls-3" d="M248.136,195.938c28.828,0,52.2,23.161,52.2,51.732s-23.369,51.731-52.2,51.731-52.2-23.161-52.2-51.731S219.308,195.938,248.136,195.938Z"/>
</svg>
